<?xml version="1.0" encoding="utf-8"?>
<!-- Generator: Adobe Illustrator 23.1.0, SVG Export Plug-In . SVG Version: 6.00 Build 0)  -->
<svg version="1.1" id="Layer_1" xmlns="http://www.w3.org/2000/svg" xmlns:xlink="http://www.w3.org/1999/xlink" x="0px" y="0px"
	 viewBox="0 0 500 500" style="enable-background:new 0 0 500 500;" xml:space="preserve">
<style type="text/css">
	.st0{display:none;}
	.st1{display:inline;}
	.st2{fill:#8884BB;}
	.st3{display:inline;fill:#8884BB;}
</style>
<g class="st0">
	<g class="st1">
		<g>
			<path class="st2" d="M355.4,198.5L355.4,198.5L355.4,198.5l-14-2c-2-0.3-3.3-2.1-3.1-4.1c0.1-0.9,0.6-1.8,1.4-2.4l11.3-8.5
				c1.6-1.2,1.9-3.4,0.7-5l-13-17.3c-1.2-1.6-3.4-1.9-5-0.7l-11.3,8.5c-1.6,1.2-3.8,0.9-5-0.7c-0.6-0.8-0.8-1.7-0.7-2.7l2-14
				c0.3-2-1.1-3.8-3.1-4.1l0,0l-21.4-3.1c-2-0.3-3.8,1.1-4.1,3.1l0,0l-2,14c-0.3,2-2.1,3.3-4.1,3.1c-0.9-0.1-1.8-0.6-2.4-1.4
				l-8.5-11.3c-1.2-1.6-3.4-1.9-5-0.7l-10.8,8.1c-4.9-0.5-9.8-0.5-14.7,0c-32.1,3.7-57.2,29.2-60.3,61.3c-0.1,1-0.1,2-0.2,3H181
				c-1.7,0-3.2,1.2-3.5,2.9l-2.5,11.8l-10-6.9c-1.4-1-3.4-0.8-4.6,0.4l-10.8,10.8c-1.2,1.2-1.4,3.2-0.4,4.6l6.8,9.9l-11.8,2.5
				c-1.7,0.4-2.8,1.8-2.8,3.5v14.4c0,1.7,1.2,3.2,2.9,3.5l11.8,2.5l-6.8,9.9c-1,1.4-0.8,3.4,0.4,4.6l10.8,10.8
				c1.2,1.2,3.2,1.4,4.6,0.4l9.9-6.9l2.5,11.8c0.3,1.7,1.8,2.9,3.5,2.9h14.4c1.7,0,3.2-1.2,3.5-2.9l2.5-11.8l9.9,6.8
				c1.4,1,3.4,0.8,4.6-0.4l5.6-5.6v10.3c0,5.1,2.8,9.8,7.2,12.4v20c0,8,6.4,14.4,14.4,14.4h14.4c8,0,14.4-6.4,14.4-14.4v-20
				c4.4-2.6,7.2-7.3,7.2-12.4v-14.3c0.1-6,3.2-11.5,8.3-14.7c3-1.9,5.8-4.1,8.5-6.5l-4.8-5.4c-2.4,2.1-4.9,4.1-7.6,5.8
				c-7.1,4.5-11.5,12.3-11.6,20.7v14.3c0,4-3.2,7.2-7.2,7.2h-28.8c-4,0-7.2-3.2-7.2-7.2v-14.5c-0.1-8.3-4.4-15.9-11.4-20.3
				c-28.5-17.9-37.1-55.6-19.2-84.1c11.1-17.7,30.5-28.5,51.5-28.6c-0.1,0.1-0.1,0.3-0.1,0.4c-0.1,0.9,0.1,1.9,0.7,2.7l8.5,11.3
				c0.9,1.2,1,2.7,0.2,4c-0.7,1.3-2.2,1.9-3.6,1.7l-14-2c-2-0.3-3.8,1.1-4.1,3.1l0,0l-3.1,21.4c-0.3,2,1.1,3.8,3.1,4.1l0,0l14,2
				c2,0.3,3.3,2.1,3.1,4.1c-0.1,0.9-0.6,1.8-1.4,2.4l-11.3,8.5c-1.6,1.2-1.9,3.4-0.7,5l13,17.3c1.2,1.6,3.4,1.9,5,0.7l11.3-8.5
				c1.6-1.2,3.8-0.9,5,0.7c0.6,0.8,0.8,1.7,0.7,2.7l-2,14c-0.3,2,1.1,3.8,3.1,4.1l0,0l21.4,3.1c0.2,0,0.3,0,0.5,0
				c1.8,0,3.3-1.3,3.6-3.1l2-14c0.3-2,2.1-3.3,4.1-3.1c0.9,0.1,1.8,0.6,2.4,1.4l8.5,11.3c1.2,1.6,3.4,1.9,5,0.7l17.3-13
				c1.6-1.2,1.9-3.4,0.7-5l-8.5-11.3c-0.9-1.2-1-2.7-0.2-4c0.7-1.3,2.2-2,3.6-1.7l14,2c2,0.3,3.8-1.1,4.1-3.1l0,0l3.1-21.4
				C358.7,200.6,357.4,198.8,355.4,198.5z M236.1,326.1h28.8v7.2h-28.8L236.1,326.1L236.1,326.1z M236.1,340.5h28.8v3.6
				c0,4-3.2,7.2-7.2,7.2h-14.4c-4,0-7.2-3.2-7.2-7.2L236.1,340.5L236.1,340.5z M207.4,278.4c2,1.6,4,3.1,6.2,4.5
				c3.4,2.1,6,5.4,7.3,9.2l-7.7,7.7l-7.5-5.2c-3.3-2.3-7.8-1.4-10,1.8c-0.5,0.8-0.9,1.7-1.1,2.6l-1.9,9H184l-1.9-9
				c-0.8-3.9-4.6-6.4-8.5-5.6c-0.9,0.2-1.8,0.6-2.6,1.1l-7.5,5.1l-6.6-6.5l5.2-7.5c2.3-3.3,1.4-7.8-1.8-10c-0.8-0.5-1.7-0.9-2.6-1.1
				l-9-1.9V264l9-1.9c3.9-0.8,6.4-4.6,5.6-8.5c-0.2-0.9-0.6-1.8-1.1-2.6l-5.2-7.5l6.6-6.5l7.5,5.2c3.3,2.3,7.8,1.4,10-1.8
				c0.5-0.8,0.9-1.7,1.1-2.6l0.6-3c0.6,4.1,1.5,8.2,2.9,12.2c-11.8,1.4-20.3,12.2-18.9,24c1.4,11.8,12.2,20.3,24,18.9
				C197.9,289.1,204.1,284.8,207.4,278.4z M201.8,273.3c-2.7,7.5-10.9,11.4-18.4,8.7c-7.5-2.7-11.4-10.9-8.7-18.4
				c2.1-5.7,7.5-9.5,13.6-9.5h0.1C191.8,261.2,196.3,267.7,201.8,273.3z M348.8,219.4l-10.4-1.5c-5.9-0.8-11.4,3.3-12.2,9.2
				c-0.4,2.8,0.3,5.7,2.1,8l6.3,8.4l-11.5,8.6l-6.3-8.4c-3.6-4.8-10.3-5.7-15.1-2.2c-2.3,1.7-3.8,4.3-4.2,7.1l-1.5,10.5l-14.3-2
				l1.5-10.4c0.8-5.9-3.3-11.4-9.2-12.2c-2.8-0.4-5.7,0.3-8,2.1l-8.4,6.3l-8.6-11.5l8.4-6.3c4.8-3.6,5.7-10.3,2.2-15.1
				c-1.7-2.3-4.3-3.8-7.1-4.2l-10.4-1.5l2-14.3l10.4,1.5c5.9,0.8,11.4-3.3,12.2-9.2c0.4-2.8-0.3-5.7-2.1-8l-6.3-8.4l11.5-8.6
				l6.3,8.4c3.6,4.8,10.3,5.7,15.1,2.2c2.3-1.7,3.8-4.3,4.2-7.1l1.5-10.4l14.3,2l-1.5,10.4c-0.8,5.9,3.3,11.4,9.2,12.2
				c2.8,0.4,5.7-0.3,8-2.1l8.4-6.3l8.6,11.5l-8.4,6.3c-4.8,3.6-5.7,10.3-2.2,15.1c1.7,2.3,4.3,3.8,7.1,4.2l10.4,1.5L348.8,219.4z"/>
		</g>
	</g>
	<g class="st1">
		<g>
			<path class="st2" d="M296.3,175.8c-15.9,0-28.8,12.9-28.8,28.8s12.9,28.8,28.8,28.8s28.8-12.9,28.8-28.8
				C325.1,188.7,312.2,175.8,296.3,175.8z M296.3,226.2c-11.9,0-21.6-9.7-21.6-21.6s9.7-21.6,21.6-21.6s21.6,9.7,21.6,21.6
				S308.3,226.2,296.3,226.2z"/>
		</g>
	</g>
	<g class="st1">
		<g>
			<rect x="246.9" y="300.9" class="st2" width="7.2" height="10.8"/>
		</g>
	</g>
	<g class="st1">
		<g>
			<path class="st2" d="M234.7,265.5c-22.2-8.7-33.2-33.7-24.5-56c3.4-8.6,9.4-15.9,17.2-20.8l-3.8-6.1
				c-23.6,14.8-30.6,46-15.8,69.5c5.7,9.1,14.3,16.2,24.3,20.1c8.9,3.4,14.8,11.9,14.8,21.5h7.2C254.1,281.2,246.4,270,234.7,265.5z
				"/>
		</g>
	</g>
	<g class="st1">
		<g>
			<rect x="318.9" y="275.7" class="st2" width="25.2" height="7.2"/>
		</g>
	</g>
	<g class="st1">
		<g>
			
				<rect x="322.5" y="292.2" transform="matrix(0.6401 -0.7683 0.7683 0.6401 -117.9149 360.7671)" class="st2" width="7.2" height="28.1"/>
		</g>
	</g>
	<g class="st1">
		<g>
			<rect x="297.3" y="304.5" class="st2" width="7.2" height="25.2"/>
		</g>
	</g>
	<g class="st1">
		<g>
			
				<rect x="145.6" y="200" transform="matrix(0.9701 -0.2425 0.2425 0.9701 -44.583 44.9862)" class="st2" width="29.7" height="7.2"/>
		</g>
	</g>
	<g class="st1">
		<g>
			
				<rect x="162.3" y="157.5" transform="matrix(0.5812 -0.8137 0.8137 0.5812 -71.346 207.431)" class="st2" width="7.2" height="31"/>
		</g>
	</g>
	<g class="st1">
		<g>
			
				<rect x="185.6" y="142" transform="matrix(0.9688 -0.2477 0.2477 0.9688 -32.9556 51.7532)" class="st2" width="7.2" height="29.7"/>
		</g>
	</g>
</g>
<g class="st0">
	<path class="st3" d="M180,187.5v139.7c0,8.1,6.6,14.8,14.7,14.8h110.5c8.1,0,14.7-6.6,14.7-14.8V187.5c0-8.1-6.6-14.7-14.7-14.7
		H283v-11.3c0-1.9-1.6-3.5-3.5-3.5h-59c-1.9,0-3.5,1.6-3.5,3.5v11.3h-22.2C186.6,172.8,180,179.4,180,187.5z M224,165h52v22.5h-52
		V165z M220.5,194.6h59c1.9,0,3.5-1.6,3.5-3.5v-11.3h22.3c4.3,0,7.8,3.5,7.8,7.8v139.7c0,4.3-3.5,7.8-7.8,7.8H194.7
		c-4.3,0-7.8-3.5-7.8-7.8V187.5c0-4.3,3.5-7.8,7.8-7.8H217v11.3C217,193,218.6,194.6,220.5,194.6z"/>
	<path class="st3" d="M218,269.2l19.6,19.6c1.3,1.3,3.6,1.3,4.9,0l39.4-39.4c0.7-0.7,1-1.5,1-2.5s-0.4-1.8-1-2.5
		c-1.4-1.4-3.6-1.4-5,0l-36.9,36.9L223,264.2c-0.7-0.7-1.6-1-2.5-1s-1.8,0.3-2.5,1C216.7,265.6,216.7,267.8,218,269.2z"/>
</g>
<g class="st0">
	<path class="st3" d="M371.9,321.2c2,0,3.7-1.6,3.7-3.7v-5.6c0-10.2-6.5-19.1-16.1-22.3l-23-7.6v-8c8-4.8,13.4-13.6,13.4-23.6v-15.9
		c0-15.1-12.3-27.5-27.5-27.5c-8.9,0-16.9,4.3-21.9,10.9c-2.8-5.2-7.5-9.3-13.4-11.2l-23-7.6v-8c8-4.8,13.4-13.6,13.4-23.6v-15.9
		c0-15.1-12.3-27.5-27.5-27.5c-15.1,0-27.5,12.3-27.5,27.5v15.9c0,10,5.4,18.8,13.4,23.6v8l-23,7.6c-5.9,1.9-10.6,6-13.4,11.2
		c-5-6.6-13-10.9-21.9-10.9c-15.1,0-27.5,12.3-27.5,27.5v15.9c0,10,5.4,18.8,13.4,23.6v8l-23,7.6c-9.7,3.2-16.1,12.2-16.1,22.3v5.6
		c0,2,1.6,3.7,3.7,3.7s3.7-1.6,3.7-3.7v-5.6c0-7,4.5-13.1,11.1-15.3l21.5-7.1c2,5.4,7.2,9.3,13.2,9.3c6.1,0,11.3-3.9,13.2-9.3
		l21.5,7.1c4.7,1.6,8.4,5.1,10.1,9.7l-9.6,3.2c-9.7,3.2-16.1,12.1-16.1,22.3v4.3h-44.2v-9.2c0-2-1.6-3.7-3.7-3.7s-3.7,1.6-3.7,3.7
		v9.2h-13.4v-1.3c0-2-1.6-3.7-3.7-3.7s-3.7,1.6-3.7,3.7v4.9c0,2,1.6,3.7,3.7,3.7h68.6v28.5c0,2,1.6,3.7,3.7,3.7h99.1
		c2,0,3.7-1.6,3.7-3.7v-4.9c0-2-1.6-3.7-3.7-3.7s-3.7,1.6-3.7,3.7v1.2h-13.4v-21.6c0-2-1.6-3.7-3.7-3.7c-2,0-3.7,1.6-3.7,3.7v21.6
		h-50.1v-21.6c0-2-1.6-3.7-3.7-3.7s-3.7,1.6-3.7,3.7v21.6h-13.4v-36.5c0-7,4.5-13.1,11.1-15.3l21.5-7.1c2,5.4,7.2,9.3,13.2,9.3
		s11.3-3.9,13.2-9.3l21.5,7.1c6.6,2.2,11.1,8.3,11.1,15.3v18.1c0,2,1.6,3.7,3.7,3.7c2,0,3.7-1.6,3.7-3.7v-6.4h68.6
		c2,0,3.7-1.6,3.7-3.7v-4.9c0-2-1.6-3.7-3.7-3.7c-2,0-3.7,1.6-3.7,3.7v1.3h-13.4v-9.2c0-2-1.6-3.7-3.7-3.7c-2,0-3.7,1.6-3.7,3.7v9.2
		h-44.2v-4.3c0-10.2-6.5-19.1-16.1-22.3l-9.6-3.2c1.7-4.5,5.3-8.1,10.1-9.7l21.5-7.1c2,5.4,7.2,9.3,13.2,9.3
		c6.1,0,11.3-3.9,13.2-9.3l21.5,7.1c6.6,2.2,11.1,8.3,11.1,15.3v5.6C368.2,319.6,369.8,321.2,371.9,321.2L371.9,321.2z M322.3,214.5
		c11.1,0,20.1,9,20.1,20.1v15.9c0,11.1-9,20.1-20.1,20.1c-11.1,0-20.1-9-20.1-20.1v-15.9C302.2,223.6,311.2,214.5,322.3,214.5
		L322.3,214.5z M229.9,167.8v-15.9c0-11.1,9-20.1,20.1-20.1c11.1,0,20.1,9,20.1,20.1v15.9c0,11.1-9,20.1-20.1,20.1
		C238.9,187.9,229.9,178.9,229.9,167.8L229.9,167.8z M250,195.2c2.3,0,4.6-0.3,6.7-0.8v7.5c0,0,0,0.1,0,0.1c0,3.7-3,6.7-6.7,6.7
		s-6.7-3-6.7-6.7c0,0,0-0.1,0-0.1v-7.5C245.4,194.9,247.7,195.2,250,195.2L250,195.2z M215.2,213.8l21.5-7.1c2,5.4,7.2,9.3,13.2,9.3
		c6.1,0,11.3-3.9,13.2-9.3l21.5,7.1c6.1,2,10.4,7.4,11,13.8c-0.6,2.2-0.9,4.6-0.9,7v15.9c0,0.9,0,1.9,0.1,2.8h-17.6
		c-0.6-14.6-12.7-26.3-27.4-26.3s-26.8,11.7-27.4,26.3H205c0.1-0.9,0.1-1.8,0.1-2.8v-15.9c0-2.4-0.3-4.8-0.9-7
		C204.8,221.2,209.1,215.9,215.2,213.8L215.2,213.8z M250,290.4c-11.1,0-20.1-9-20.1-20.1v-15.9c0-11.1,9-20.1,20.1-20.1
		c11.1,0,20.1,9,20.1,20.1v15.9C270.1,281.4,261.1,290.4,250,290.4z M157.6,250.5v-15.9c0-11.1,9-20.1,20.1-20.1
		c11.1,0,20.1,9,20.1,20.1v15.9c0,11.1-9,20.1-20.1,20.1S157.6,261.6,157.6,250.5L157.6,250.5z M184.4,284.7c0,3.7-3,6.7-6.7,6.7
		s-6.7-3-6.7-6.7v-7.6c2.2,0.5,4.4,0.8,6.7,0.8c2.3,0,4.6-0.3,6.7-0.8V284.7z M214.7,289.6l-23-7.6v-8c5.1-3.1,9.2-7.8,11.4-13.4
		h19.4v9.7c0,10,5.4,18.8,13.4,23.6v8l-6.4,2.1C227.1,297.2,221.7,291.9,214.7,289.6L214.7,289.6z M250,311.2c-3.7,0-6.7-3-6.7-6.7
		v0c0,0,0,0,0,0v-7.5c2.2,0.5,4.4,0.8,6.7,0.8c2.3,0,4.6-0.3,6.7-0.8v7.5v0v0C256.7,308.2,253.7,311.2,250,311.2L250,311.2z
		 M285.3,289.6c-7,2.3-12.3,7.6-14.7,14.4l-6.4-2.1v-8c8-4.8,13.4-13.6,13.4-23.6v-9.7h19.4c2.2,5.6,6.3,10.4,11.4,13.4v8
		L285.3,289.6z M322.3,291.4c-3.7,0-6.7-3-6.7-6.7v-7.6c2.2,0.5,4.4,0.8,6.7,0.8c2.3,0,4.6-0.3,6.7-0.8v7.6
		C329,288.4,326,291.4,322.3,291.4z"/>
</g>
<g>
	<path class="st2" d="M354.7,222.8l-23.2-23.2l-2.7,2.7c-4.1,4.1-9.6,6.4-15.5,6.4c-5.8,0-11.3-2.3-15.5-6.4
		c-4.1-4.1-6.4-9.6-6.4-15.5s2.3-11.3,6.4-15.5l2.7-2.7l-23.2-23.2L145.3,277.2l23.2,23.2l2.7-2.7c4.1-4.1,9.6-6.4,15.5-6.4
		c5.8,0,11.3,2.3,15.5,6.4c4.1,4.1,6.4,9.6,6.4,15.5s-2.3,11.3-6.4,15.5l-2.7,2.7l23.2,23.2L354.7,222.8z M207.7,292.3
		c-5.6-5.6-13-8.7-20.9-8.7c-5.9,0-11.5,1.7-16.4,4.9l-1.7,1.1l-12.5-12.5l121-121l12.5,12.5l-1.1,1.7c-3.2,4.8-4.9,10.5-4.9,16.4
		c0,7.9,3.1,15.3,8.7,20.9c5.6,5.6,13,8.7,20.9,8.7c5.9,0,11.5-1.7,16.4-4.9l1.7-1.1l12.5,12.5l-121,121l-12.5-12.5l1.1-1.7
		c3.2-4.8,4.9-10.5,4.9-16.4C216.3,305.3,213.3,297.9,207.7,292.3z"/>
	
		<rect x="264.3" y="228" transform="matrix(0.7071 -0.7071 0.7071 0.7071 -85.381 257.5124)" class="st2" width="7.7" height="7.7"/>
	
		<rect x="246.3" y="209.9" transform="matrix(0.7071 -0.7071 0.7071 0.7071 -77.9182 239.5078)" class="st2" width="7.7" height="7.7"/>
	
		<rect x="282.3" y="246" transform="matrix(0.7071 -0.7071 0.7071 0.7071 -92.8388 275.5181)" class="st2" width="7.7" height="7.7"/>
</g>
</svg>
